{
  "project_info": {
    "project_number": "503136207773",
    "firebase_url": "https://sofearun-1532486598022.firebaseio.com",
    "project_id": "sofearun-1532486598022",
    "storage_bucket": "sofearun-1532486598022.appspot.com"
  },
  "client": [
    {
      "client_info": {
        "mobilesdk_app_id": "1:503136207773:android:56a465f73ba094b7",
        "android_client_info": {
          "package_name": "com.sofea.runapp"
        }
      },
      "oauth_client": [
        {
          "client_id": "503136207773-3kch7pepb1ujgf9gs6uh0qedb12558ps.apps.googleusercontent.com",
          "client_type": 1,
          "android_info": {
            "package_name": "com.sofea.runapp",
            "certificate_hash": "a50e7d7c8c70d484dbeb9d5ff626d87da67ac547"
          }
        },
        {
          "client_id": "503136207773-8m2l70n2ek6ug2a3468tgd5thd04kos8.apps.googleusercontent.com",
          "client_type": 3
        }
      ],
      "api_key": [
        {
          "current_key": "AIzaSyCqDpONhth9llzVIrNYV0TGAE5K82tl9mA"
        }
      ],
      "services": {
        "analytics_service": {
          "status": 1
        },
        "appinvite_service": {
          "status": 2,
          "other_platform_oauth_client": [
            {
              "client_id": "503136207773-8m2l70n2ek6ug2a3468tgd5thd04kos8.apps.googleusercontent.com",
              "client_type": 3
            }
          ]
        },
        "ads_service": {
          "status": 2
        }
      }
    }
  ],
  "configuration_version": "1"
}